%YAML 1.1
%TAG !u! tag:unity3d.com,2011:
--- !u!114 &11400000
MonoBehaviour:
  m_ObjectHideFlags: 0
  m_CorrespondingSourceObject: {fileID: 0}
  m_PrefabInstance: {fileID: 0}
  m_PrefabAsset: {fileID: 0}
  m_GameObject: {fileID: 0}
  m_Enabled: 1
  m_EditorHideFlags: 0
  m_Script: {fileID: 11500000, guid: 191055dd2ab0c234e886d92e0939c5df, type: 3}
  m_Name: Menu 2
  m_EditorClassIdentifier: 
  MenuName: Hum
  IngredientNumber: 1
  ProcessNumber: 2
  CookingNumber: 2
  MenuValue: 15
