%YAML 1.1
%TAG !u! tag:unity3d.com,2011:
--- !u!1045 &1
EditorBuildSettings:
  m_ObjectHideFlags: 0
  serializedVersion: 2
  m_Scenes:
  - enabled: 1
    path: Assets/Scenes/MainMenu.unity
    guid: 3131afee32d8e3c4e882b4549f64b8f2
  - enabled: 0
    path: Assets/Scenes/Customer.unity
    guid: f21744b45f33cce438d8573ccc079803
  - enabled: 1
    path: Assets/Scenes/CookGameplay.unity
    guid: 08605eb35bac9f645912fa48d8187b6b
  m_configObjects: {}
